<svg width="19" height="31" viewBox="0 0 19 31" fill="none" xmlns="http://www.w3.org/2000/svg">
<path d="M6.1203 14.4447L4.30609 18.9885C4.22766 19.1875 4.28726 19.4142 4.45319 19.5486C4.61911 19.6831 4.85298 19.6941 5.03058 19.5756L9.15367 16.8224L13.277 19.5766C13.4546 19.6951 13.6885 19.6841 13.8544 19.5496C14.0203 19.4151 14.0799 19.1884 14.0015 18.9894L12.187 14.4447L15.7938 11.7345C15.9618 11.6081 16.0305 11.3884 15.964 11.1884C15.8975 10.9887 15.711 10.854 15.5008 10.854H11.0115L9.61569 6.78129C9.54775 6.58374 9.36227 6.45117 9.15367 6.45117C8.94412 6.45189 8.75865 6.58661 8.69237 6.78583L7.33708 10.854H2.80657C2.59654 10.854 2.40988 10.9887 2.34337 11.1884C2.27709 11.3884 2.34551 11.6081 2.51358 11.7345L6.1203 14.4447ZM7.68896 11.8324C7.89923 11.8324 8.08589 11.6977 8.1524 11.4978L9.16059 8.46484L10.2014 11.4978C10.2691 11.6953 10.4546 11.8279 10.663 11.8281H14.0361L11.3019 13.8827C11.1252 14.0155 11.0592 14.2505 11.1414 14.4559L12.5108 17.8854L9.42473 15.8239C9.26072 15.7141 9.04687 15.7141 8.88285 15.8239L5.79656 17.8854L7.16615 14.4559C7.24602 14.2517 7.18022 14.0193 7.00547 13.8872L4.27129 11.8324H7.68896Z" fill="white"/>
<path d="M18.5128 0.658203H0.48718C0.218137 0.658203 3.7566e-07 0.875735 3.7566e-07 1.14403V30.2937C-0.000237505 30.4852 0.112518 30.6591 0.287598 30.7376C0.462678 30.8159 0.667731 30.7845 0.811173 30.6572L9.26521 23.1626L18.1991 30.6655C18.3442 30.7872 18.5466 30.814 18.7183 30.7343C18.8901 30.6546 19 30.4826 19 30.2937V1.14403C19 0.875735 18.7819 0.658203 18.5128 0.658203ZM18.0256 29.2497L9.57065 22.1488C9.38558 21.9931 9.11392 21.9967 8.93289 22.1571L0.974359 29.2118V1.62986H18.0256V29.2497Z" fill="white"/>
</svg>
