<svg width="32" height="32" viewBox="0 0 32 32" fill="none" xmlns="http://www.w3.org/2000/svg">
<path d="M14.9493 8.68391L13.6613 6.10772C14.2274 5.71728 14.5996 5.0649 14.5996 4.3264C14.5996 3.13334 13.6294 2.16309 12.4363 2.16309C11.2432 2.16309 10.273 3.13328 10.273 4.3264C10.273 5.51947 11.2431 6.48972 12.4363 6.48972C12.5043 6.48972 12.5713 6.48578 12.6376 6.47953L13.8016 8.80735C13.5565 8.90504 13.3341 9.04647 13.1425 9.22179C13.1345 9.21916 13.1273 9.21504 13.1191 9.21279L7.56251 7.69735C7.56488 7.65547 7.56882 7.61391 7.56882 7.57141C7.56882 6.37834 6.59863 5.40809 5.4055 5.40809C4.21238 5.40809 3.24219 6.37828 3.24219 7.57141C3.24219 8.76447 4.21238 9.73473 5.4055 9.73473C6.17307 9.73473 6.84657 9.33204 7.23063 8.7281L12.5335 10.1743C12.4703 10.3772 12.4362 10.593 12.4362 10.8164C12.4362 11.07 12.4824 11.3125 12.5628 11.5388L10.0436 13.6384C9.68839 12.9285 8.95614 12.4389 8.10964 12.4389C6.91657 12.4389 5.94632 13.4091 5.94632 14.6022C5.94632 15.7953 6.91651 16.7656 8.10964 16.7656C9.21133 16.7656 10.1212 15.9377 10.2545 14.8714L13.1733 12.439C13.5545 12.7745 14.0529 12.9798 14.5995 12.9798C15.7926 12.9798 16.7628 12.0096 16.7628 10.8165C16.7629 9.7426 15.9762 8.85191 14.9493 8.68391ZM12.4363 5.40809C11.84 5.40809 11.3546 4.92272 11.3546 4.32647C11.3546 3.73015 11.84 3.24484 12.4363 3.24484C13.0326 3.24484 13.5179 3.73021 13.5179 4.32647C13.518 4.92272 13.0326 5.40809 12.4363 5.40809ZM5.40557 8.65304C4.80925 8.65304 4.32394 8.16766 4.32394 7.57141C4.32394 6.9751 4.80932 6.48978 5.40557 6.48978C6.00182 6.48978 6.48719 6.97516 6.48719 7.57141C6.48719 8.16766 6.00182 8.65304 5.40557 8.65304ZM8.1097 15.6837C7.51338 15.6837 7.02807 15.1984 7.02807 14.6021C7.02807 14.0058 7.51345 13.5205 8.1097 13.5205C8.70595 13.5205 9.19132 14.0059 9.19132 14.6021C9.19132 15.1984 8.70595 15.6837 8.1097 15.6837ZM14.5996 11.898C14.0033 11.898 13.518 11.4126 13.518 10.8164C13.518 10.22 14.0033 9.73473 14.5996 9.73473C15.1958 9.73473 15.6812 10.2201 15.6812 10.8164C15.6812 11.4126 15.1959 11.898 14.5996 11.898Z" fill="white"/>
<path d="M30.6723 27.3867L24.4418 21.1566C23.5146 20.2289 22.0736 20.1202 21.0224 20.8272C20.9988 20.7854 20.9714 20.7453 20.9359 20.7098L16.9959 16.7698C18.8524 14.996 20.0127 12.499 20.0127 9.73483C20.0127 4.36726 15.6454 0 10.2778 0C4.91017 0 0.542969 4.36726 0.542969 9.73483C0.542969 15.1024 4.91023 19.4697 10.2778 19.4697C12.4919 19.4697 14.5347 18.7252 16.1719 17.4753L20.1711 21.4745C20.2066 21.5099 20.2466 21.5372 20.2882 21.5607C19.5806 22.6115 19.6898 24.0523 20.6179 24.9804L26.848 31.2104C27.3745 31.737 28.0659 32 28.7583 32C29.4507 32 30.1431 31.7364 30.6707 31.2094C31.7249 30.1547 31.7255 28.4398 30.6723 27.3867ZM10.2778 18.388C5.50648 18.388 1.6246 14.5062 1.6246 9.73483C1.6246 4.96351 5.50648 1.08163 10.2778 1.08163C15.0491 1.08163 18.931 4.96351 18.931 9.73483C18.931 14.5062 15.0491 18.388 10.2778 18.388ZM29.906 30.4446C29.2738 31.0768 28.2449 31.0779 27.6127 30.4457L21.3826 24.2156C20.7509 23.5834 20.7509 22.5551 21.3837 21.9224C21.7006 21.606 22.1163 21.4476 22.5314 21.4476C22.9465 21.4476 23.3611 21.6055 23.677 21.9214L29.9075 28.1514C30.5392 28.7831 30.5382 29.8119 29.906 30.4446Z" fill="white"/>
</svg>
