<svg width="29" height="29" viewBox="0 0 29 29" fill="none" xmlns="http://www.w3.org/2000/svg">
<path d="M10.623 21.0003V11.667H7.36781V21.0003H10.623ZM8.99583 10.3919C10.131 10.3919 10.8375 9.67523 10.8375 8.77961C10.8164 7.86379 10.131 7.16699 9.01739 7.16699C7.90391 7.16699 7.17578 7.8638 7.17578 8.77961C7.17578 9.67528 7.88218 10.3919 8.97461 10.3919H8.99576H8.99583Z" fill="#E0E0E0"/>
<path d="M12.0586 21.0004H15.2575V15.8944C15.2575 15.6211 15.2783 15.3482 15.3627 15.1528C15.594 14.6068 16.1203 14.0414 17.004 14.0414C18.1615 14.0414 18.6246 14.8798 18.6246 16.109V21.0004H21.8233V15.7577C21.8233 12.9493 20.2451 11.6426 18.1405 11.6426C16.4148 11.6426 15.6571 12.559 15.2362 13.1831H15.2575V11.8571H12.0587C12.1006 12.715 12.0587 21.0003 12.0587 21.0003L12.0586 21.0004Z" fill="#E0E0E0"/>
<rect x="1" y="1" width="27" height="27" rx="7" stroke="#E0E0E0"/>
</svg>
